<svg id="check" width="12" height="10" viewBox="0 0 12 10" xmlns="http://www.w3.org/2000/svg">
  <path d="M0.0185547 5.65234L1.86426 3.81348L4.21582 6.16504L10.1357 0.251953L11.9678 2.09766L4.21582 9.84961L0.0185547 5.65234Z" fill="#fff"/>
</svg>
